{
  "project_info": {
    "project_number": "1008166497096",
    "project_id": "fiknetapp",
    "storage_bucket": "fiknetapp.appspot.com"
  },
  "client": [
    {
      "client_info": {
        "mobilesdk_app_id": "1:1008166497096:android:b8e947d42e13f780f5217d",
        "android_client_info": {
          "package_name": "com.fiknetapp"
        }
      },
      "oauth_client": [
        {
          "client_id": "1008166497096-odit1bu4tlqpnaa1i9femk15e30hivg6.apps.googleusercontent.com",
          "client_type": 3
        }
      ],
      "api_key": [
        {
          "current_key": "AIzaSyBu7YCX6FW5HxcY0V8gEJNaz_4JhfMNBXc"
        }
      ],
      "services": {
        "appinvite_service": {
          "other_platform_oauth_client": [
            {
              "client_id": "1008166497096-odit1bu4tlqpnaa1i9femk15e30hivg6.apps.googleusercontent.com",
              "client_type": 3
            }
          ]
        }
      }
    }
  ],
  "configuration_version": "1"
}
